…
Then, add a year column with lubridate function and pivot the data on year. Calculate the mean and sd with the summarise function.

```{r}
raw_df %>% 
  group_by(year = lubridate::year(dt))  %>% 
  summarise(mean_geo = round(mean(geothermal_lic)), sd_geo = round(sd(geothermal_lic),1))
```

### 2. Find the hourly average unlicensed solar (sun_ul) production levels for May 2020.
```{r}
## `summarise()` ungrouping output (override with `.groups` argument)
```

```{r}
## # A tibble: 24 x 2
##    hour avg_prod
##   <int>    <dbl>
## 1     0     0.17
## 2     1     0.37
## 3     2     0.7 
## # … with 21 more rows
```
…
